
  Id CommandLine                                                                           
  -- -----------                                                                           
   1 cd D:\VS\Git-course\mastering-git-my-fork\                                            
   2 git status                                                                            
   3 git remote -v                                                                         
   4 git remote add upstream git@gitlab.com:redhat/research/mastering-git.git              
   5 git switch main                                                                       
   6 git fetch upstream                                                                    
   7 git merge upstream/main                                                               
   8 git log                                                                               
   9 git status                                                                            
  10 git push origin main                                                                  
  11 ls                                                                                    
  12 cd .\class3_homework\                                                                 
  13 ls                                                                                    
  14 git status                                                                            
  15 git switch -c HW3-514449                                                              
  16 git status                                                                            
  17 echo. > 514449.txt                                                                    
  18 echo "" > 514449.txt                                                                  
  19 notepad .\514449.txt                                                                  
  20 git status                                                                            
  21 git commit -m "Added my feedback in 514449.txt"                                       
  22 git add .\514449.txt                                                                  
  23 git commit -m "Added my feedback in 514449.txt"                                       
  24 git push origin HW3-514449                                                            
  25 git status                                                                            
  26 history                                                                               


